…
In this dataset, there are 1384617 observations and 15 variables. Key
variable include the order id, product id, reordered times, user id and
order number and others.

``` r
instacart |>
  group_by(aisle) |>
  summarize(
    items = n()) |>
  mutate(
    aisle_ranking = min_rank(items)) |> 
  arrange(aisle_ranking)
```

    ## # A tibble: 134 × 3
    ##    aisle                      items aisle_ranking
    ##    <chr>                      <int>         <int>
    ##  1 beauty                       287             1
    ##  2 frozen juice                 294             2
    ##  3 baby accessories             306             3
    ##  4 baby bath body care          328             4
    ##  5 kitchen supplies             448             5
    ##  6 specialty wines champagnes   461             6
    ##  7 ice cream toppings           504             7
    ##  8 shave needs                  532             8
    ##  9 skin care                    534             9
    ## 10 first aid                    539            10
    ## # ℹ 124 more rows
…
